[
{
    "model": "main.plan",
    "pk": 1,
    "fields": {
        "plan_name": 1,
        "plan_price_currency": "USD",
        "plan_price": "1.99",
        "plan_validity": 18000
    }
},
{
    "model": "main.usermodel",
    "pk": 6,
    "fields": {
        "password": "pbkdf2_sha256$100000$9Wa9QsfahxHP$S8OsAK+XUmWsw8LuVeuJKwdy5M2Nnhc36lE/6wh9NCQ=",
        "last_login": "2018-04-02T09:50:50.254Z",
        "is_superuser": false,
        "first_name": "Bruce",
        "last_name": "Wayne",
        "email": "bruce.wayne@wayne.enterprise",
        "is_staff": false,
        "is_active": true,
        "date_joined": "2018-01-10T07:01:30Z",
        "contact_number": "+917777777701",
        "profile_image": "media/uploads/batman_by_mo_stylez09.jpg",
        "role": 2,
        "gender": "M",
        "username": null,
        "is_blocked": false,
        "has_plan": 1,
        "registration_date": "2018-01-10T07:01:30.283Z",
        "date_updated": "2018-03-30T13:32:08.191Z",
        "groups": [],
        "user_permissions": []
    }
},
{
    "model": "main.usermodel",
    "pk": 31,
    "fields": {
        "password": "pbkdf2_sha256$100000$9Wa9QsfahxHP$S8OsAK+XUmWsw8LuVeuJKwdy5M2Nnhc36lE/6wh9NCQ=",
        "last_login": "2018-04-26T07:01:10.890Z",
        "is_superuser": false,
        "first_name": "Tony",
        "last_name": "Stark",
        "email": "tony.stark@jarvis.tech",
        "is_staff": false,
        "is_active": true,
        "date_joined": "2018-02-09T07:01:08Z",
        "contact_number": "+919999999901",
        "profile_image": "media/uploads/iron_man_by_alexiscabo1-da2oe2u.png",
        "role": 2,
        "gender": "M",
        "username": null,
        "is_blocked": false,
        "has_plan": 1,
        "registration_date": "2018-02-09T07:01:08.006Z",
        "date_updated": "2018-03-30T13:30:23.972Z",
        "groups": [],
        "user_permissions": []
    }
},
{
    "model": "main.usermodel",
    "pk": 43,
    "fields": {
        "password": "pbkdf2_sha256$100000$kEtAHIjjqAvu$5o6DsJkxLLwoMw317UNhx/HYX8sHN7tvfG+mWhvyk4c=",
        "last_login": null,
        "is_superuser": false,
        "first_name": "beta",
        "last_name": "user",
        "email": "email@email.com",
        "is_staff": false,
        "is_active": true,
        "date_joined": "2018-04-13T07:39:13.975Z",
        "contact_number": "+919999999909",
        "profile_image": "",
        "role": 3,
        "gender": "M",
        "username": null,
        "is_blocked": false,
        "has_plan": 1,
        "registration_date": "2018-04-13T07:39:13.976Z",
        "date_updated": "2018-04-13T07:39:13.976Z",
        "groups": [],
        "user_permissions": []
    }
},
{
    "model": "main.usermodel",
    "pk": 36,
    "fields": {
        "password": "pbkdf2_sha256$100000$yBFTPF4vApfh$0rjuCCxqM9kLJNp3l4G1F2rO8/gGYSJ3hpdhyHF7trw=",
        "last_login": "2018-03-30T07:58:50Z",
        "is_superuser": false,
        "first_name": "Sherlock",
        "last_name": "Holmes",
        "email": "sh221b@mind.palace",
        "is_staff": false,
        "is_active": true,
        "date_joined": "2018-02-15T10:11:40Z",
        "contact_number": "+919999999904",
        "profile_image": "media/uploads/temp_UemmwGB.jpeg",
        "role": 3,
        "gender": "F",
        "username": null,
        "is_blocked": false,
        "has_plan": 1,
        "registration_date": "2018-02-15T10:11:40.443Z",
        "date_updated": "2018-04-05T11:55:52.207Z",
        "groups": [],
        "user_permissions": []
    }
},
{
    "model": "main.usermodel",
    "pk": 33,
    "fields": {
        "password": "pbkdf2_sha256$100000$9Wa9QsfahxHP$S8OsAK+XUmWsw8LuVeuJKwdy5M2Nnhc36lE/6wh9NCQ=",
        "last_login": null,
        "is_superuser": false,
        "first_name": "Bruce",
        "last_name": "Banner",
        "email": "banner@marvel.universe",
        "is_staff": false,
        "is_active": true,
        "date_joined": "2018-02-09T07:01:39Z",
        "contact_number": "+919999999903",
        "profile_image": "media/uploads/temp_LJbJSEr.jpeg",
        "role": 3,
        "gender": "M",
        "username": null,
        "is_blocked": false,
        "has_plan": null,
        "registration_date": "2018-02-09T07:01:39.421Z",
        "date_updated": "2018-04-11T06:12:47.845Z",
        "groups": [],
        "user_permissions": []
    }
},
{
    "model": "employee.survey",
    "pk": 141,
    "fields": {
        "created_by": 31,
        "name": "survey001",
        "employee_group": "all",
        "steps": 5,
        "complete": true,
        "start_date": "2018-01-01T23:59:00Z",
        "end_date": "2019-01-01T23:59:00Z",
        "date_created": "2018-04-05T10:10:01.496Z",
        "date_updated": "2018-04-06T07:49:14.322Z",
        "question": [
            5,
            17
        ]
    }
},
{
    "model": "employee.survey",
    "pk": 119,
    "fields": {
        "created_by": 31,
        "name": "all_rate_check",
        "employee_group": "all",
        "steps": 5,
        "complete": true,
        "start_date": "2018-02-01T00:00:00Z",
        "end_date": "2020-12-31T00:00:00Z",
        "date_created": "2018-02-13T12:50:11.064Z",
        "date_updated": "2018-02-13T12:56:27.703Z",
        "question": [
            17,
            18,
            19,
            20,
            21,
            22,
            23,
            24,
            25
        ]
    }
},
{
    "model": "main.usermodel",
    "pk": 34,
    "fields": {
        "password": "pbkdf2_sha256$100000$9Wa9QsfahxHP$S8OsAK+XUmWsw8LuVeuJKwdy5M2Nnhc36lE/6wh9NCQ=",
        "last_login": "2018-02-09T09:38:56Z",
        "is_superuser": false,
        "first_name": "Black",
        "last_name": "Widow",
        "email": "widow@marvel.universe",
        "is_staff": false,
        "is_active": true,
        "date_joined": "2018-02-09T07:01:39Z",
        "contact_number": "+919999999905",
        "profile_image": "",
        "role": 3,
        "gender": "F",
        "username": null,
        "is_blocked": false,
        "has_plan": null,
        "registration_date": "2018-02-09T07:01:39.740Z",
        "date_updated": "2018-03-30T13:33:10.463Z",
        "groups": [],
        "user_permissions": []
    }
},
{
    "model": "main.usermodel",
    "pk": 37,
    "fields": {
        "password": "pbkdf2_sha256$100000$rPVTsLUuWgeN$NRlrwbycpkIiIywlOAYXMhIQ8krAt8lOboa97F3hZ98=",
        "last_login": "2018-03-27T13:14:07Z",
        "is_superuser": false,
        "first_name": "Oliver",
        "last_name": "Queen",
        "email": "oliver.queen@dc.comics",
        "is_staff": false,
        "is_active": true,
        "date_joined": "2018-02-21T06:32:21Z",
        "contact_number": "+917777777702",
        "profile_image": "media/uploads/temp_rKp8JRB.jpeg",
        "role": 3,
        "gender": "M",
        "username": null,
        "is_blocked": false,
        "has_plan": 1,
        "registration_date": "2018-02-21T06:32:21.664Z",
        "date_updated": "2018-03-30T13:34:33.060Z",
        "groups": [],
        "user_permissions": []
    }
},
{
    "model": "employee.survey",
    "pk": 137,
    "fields": {
        "created_by": 6,
        "name": "demo11",
        "employee_group": "all",
        "steps": 5,
        "complete": true,
        "start_date": "2018-03-01T23:00:00Z",
        "end_date": "2020-01-01T00:00:00Z",
        "date_created": "2018-03-27T10:04:34.467Z",
        "date_updated": "2018-03-27T10:05:39.396Z",
        "question": [
            1,
            2,
            3
        ]
    }
},
{
    "model": "employee.survey",
    "pk": 89,
    "fields": {
        "created_by": 31,
        "name": "Mk3",
        "employee_group": "all",
        "steps": 5,
        "complete": true,
        "start_date": "2018-02-08T00:00:00Z",
        "end_date": "2018-03-31T00:00:00Z",
        "date_created": "2018-02-09T07:19:43.581Z",
        "date_updated": "2018-02-09T07:20:00.870Z",
        "question": [
            1,
            5
        ]
    }
},
{
    "model": "main.usermodel",
    "pk": 32,
    "fields": {
        "password": "pbkdf2_sha256$100000$UPtMbucZirlm$2H7k52QPSaUXR8zNF+5Pa/5CnqjdBDwn34JxwzLEKpQ=",
        "last_login": "2018-04-05T10:48:24.706Z",
        "is_superuser": false,
        "first_name": "Stephen",
        "last_name": "Strange",
        "email": "stephen.strange@marvel.universe",
        "is_staff": false,
        "is_active": true,
        "date_joined": "2018-02-09T07:01:39Z",
        "contact_number": "+919999999902",
        "profile_image": "media/uploads/temp_LAProiE.jpeg",
        "role": 3,
        "gender": "M",
        "username": null,
        "is_blocked": false,
        "has_plan": null,
        "registration_date": "2018-02-09T07:01:39.106Z",
        "date_updated": "2018-04-13T06:10:45.265Z",
        "groups": [],
        "user_permissions": []
    }
},
{
    "model": "employee.survey",
    "pk": 90,
    "fields": {
        "created_by": 31,
        "name": "Mk4",
        "employee_group": "North",
        "steps": 5,
        "complete": true,
        "start_date": "2018-02-09T00:00:00Z",
        "end_date": "2018-12-31T23:59:00Z",
        "date_created": "2018-02-09T07:20:10.743Z",
        "date_updated": "2018-02-09T08:09:15.658Z",
        "question": [
            1,
            2,
            3,
            4,
            5,
            6,
            7,
            8
        ]
    }
},
{
    "model": "employee.surveyresponse",
    "pk": 64,
    "fields": {
        "related_survey": 90,
        "related_user": 43,
        "answers": {
            "7": {
                "r": 3,
                "m": ""
            },
            "5": {
                "r": 3,
                "m": ""
            },
            "6": {
                "r": 3,
                "m": ""
            },
            "1": {
                "r": 4,
                "m": ""
            },
            "2": {
                "r": 7,
                "m": ""
            },
            "3": {
                "r": 4,
                "m": ""
            },
            "4": {
                "r": 3,
                "m": ""
            },
            "8": {
                "r": 10,
                "m": ""
            }
        },
        "complete": true,
        "date_created": "2018-04-13T07:40:48.294Z",
        "date_updated": "2018-04-13T07:40:48.353Z"
    }
},
{
    "model": "employee.surveyresponse",
    "pk": 63,
    "fields": {
        "related_survey": 89,
        "related_user": 43,
        "answers": {
            "5": {
                "r": 10,
                "m": ""
            },
            "1": {
                "r": 5,
                "m": ""
            }
        },
        "complete": true,
        "date_created": "2018-04-13T07:40:32.363Z",
        "date_updated": "2018-04-13T07:40:32.458Z"
    }
},
{
    "model": "employee.surveyresponse",
    "pk": 62,
    "fields": {
        "related_survey": 90,
        "related_user": 36,
        "answers": {
            "7": {
                "r": 3,
                "m": ""
            },
            "5": {
                "r": 9,
                "m": "great"
            },
            "6": {
                "r": 3,
                "m": ""
            },
            "1": {
                "r": 5,
                "m": "awesome "
            },
            "2": {
                "r": 7,
                "m": "good"
            },
            "3": {
                "r": 9,
                "m": "well"
            },
            "4": {
                "r": 1,
                "m": "bad"
            },
            "8": {
                "r": 6,
                "m": ""
            }
        },
        "complete": true,
        "date_created": "2018-04-11T06:27:14.249Z",
        "date_updated": "2018-04-11T06:27:14.326Z"
    }
},
{
    "model": "employee.surveyresponse",
    "pk": 61,
    "fields": {
        "related_survey": 89,
        "related_user": 36,
        "answers": {
            "5": {
                "r": 10,
                "m": "hi"
            },
            "1": {
                "r": 5,
                "m": ""
            }
        },
        "complete": true,
        "date_created": "2018-04-11T06:26:24.334Z",
        "date_updated": "2018-04-11T06:26:24.566Z"
    }
},
{
    "model": "employee.surveyresponse",
    "pk": 60,
    "fields": {
        "related_survey": 119,
        "related_user": 33,
        "answers": {
            "25": {
                "r": 10,
                "m": ""
            },
            "19": {
                "r": 4,
                "m": ""
            },
            "21": {
                "r": 5,
                "m": ""
            },
            "17": {
                "r": 2,
                "m": ""
            },
            "18": {
                "r": 3,
                "m": ""
            },
            "24": {
                "r": 1,
                "m": ""
            },
            "23": {
                "r": 5,
                "m": ""
            },
            "20": {
                "r": 5,
                "m": ""
            },
            "22": {
                "r": 6,
                "m": ""
            }
        },
        "complete": true,
        "date_created": "2018-04-11T06:12:04.240Z",
        "date_updated": "2018-04-11T06:12:04.333Z"
    }
},
{
    "model": "employee.surveyresponse",
    "pk": 59,
    "fields": {
        "related_survey": 90,
        "related_user": 33,
        "answers": {
            "7": {
                "r": 1,
                "m": ""
            },
            "5": {
                "r": 1,
                "m": ""
            },
            "6": {
                "r": 1,
                "m": ""
            },
            "1": {
                "r": 1,
                "m": ""
            },
            "2": {
                "r": 1,
                "m": ""
            },
            "3": {
                "r": 1,
                "m": ""
            },
            "4": {
                "r": 1,
                "m": ""
            },
            "8": {
                "r": 1,
                "m": ""
            }
        },
        "complete": true,
        "date_created": "2018-04-11T06:11:45.071Z",
        "date_updated": "2018-04-11T06:11:45.146Z"
    }
},
{
    "model": "employee.surveyresponse",
    "pk": 58,
    "fields": {
        "related_survey": 89,
        "related_user": 33,
        "answers": {
            "5": {
                "r": 1,
                "m": ""
            },
            "1": {
                "r": 1,
                "m": ""
            }
        },
        "complete": true,
        "date_created": "2018-04-11T06:11:36.405Z",
        "date_updated": "2018-04-11T06:11:36.495Z"
    }
},
{
    "model": "employee.surveyresponse",
    "pk": 57,
    "fields": {
        "related_survey": 141,
        "related_user": 32,
        "answers": {
            "5": {
                "m": "ok",
                "r": 5
            },
            "17": {
                "m": "",
                "r": 2
            }
        },
        "complete": true,
        "date_created": "2018-04-06T07:51:24.552Z",
        "date_updated": "2018-04-06T07:51:24.625Z"
    }
},
{
    "model": "employee.surveyresponse",
    "pk": 56,
    "fields": {
        "related_survey": 119,
        "related_user": 32,
        "answers": {
            "25": {
                "m": "",
                "r": 6
            },
            "19": {
                "m": "",
                "r": 4
            },
            "21": {
                "m": "",
                "r": 5
            },
            "17": {
                "m": "",
                "r": 2
            },
            "18": {
                "m": "",
                "r": 3
            },
            "24": {
                "m": "",
                "r": 3
            },
            "23": {
                "m": "",
                "r": 2
            },
            "20": {
                "m": "",
                "r": 2
            },
            "22": {
                "m": "",
                "r": 4
            }
        },
        "complete": true,
        "date_created": "2018-04-05T11:51:20.750Z",
        "date_updated": "2018-04-05T11:51:20.855Z"
    }
},
{
    "model": "employee.surveyresponse",
    "pk": 55,
    "fields": {
        "related_survey": 89,
        "related_user": 34,
        "answers": {
            "5": {
                "r": 9,
                "m": ""
            },
            "1": {
                "r": 5,
                "m": ""
            }
        },
        "complete": true,
        "date_created": "2018-03-28T09:29:37.947Z",
        "date_updated": "2018-04-04T12:50:04.620Z"
    }
},
{
    "model": "employee.surveyresponse",
    "pk": 54,
    "fields": {
        "related_survey": 137,
        "related_user": 37,
        "answers": {
            "1": {
                "r": 2,
                "m": ""
            },
            "3": {
                "r": 8,
                "m": "good"
            },
            "2": {
                "r": 7,
                "m": ""
            }
        },
        "complete": true,
        "date_created": "2018-03-28T08:08:57.473Z",
        "date_updated": "2018-03-28T08:08:57.581Z"
    }
},
{
    "model": "employee.surveyresponse",
    "pk": 53,
    "fields": {
        "related_survey": 89,
        "related_user": 32,
        "answers": {
            "5": {
                "r": 6,
                "m": ""
            },
            "1": {
                "r": 5,
                "m": ""
            }
        },
        "complete": true,
        "date_created": "2018-03-28T07:50:07.507Z",
        "date_updated": "2018-03-28T07:50:07.614Z"
    }
},
{
    "model": "employee.surveyresponse",
    "pk": 52,
    "fields": {
        "related_survey": 90,
        "related_user": 32,
        "answers": {
            "7": {
                "m": "",
                "r": 3
            },
            "5": {
                "m": "",
                "r": 8
            },
            "6": {
                "m": "",
                "r": 1
            },
            "1": {
                "m": "",
                "r": 4
            },
            "2": {
                "m": "not much of good",
                "r": 5
            },
            "3": {
                "m": "",
                "r": 10
            },
            "4": {
                "m": "",
                "r": 2
            },
            "8": {
                "m": "",
                "r": 9
            }
        },
        "complete": true,
        "date_created": "2018-03-28T07:08:22.999Z",
        "date_updated": "2018-03-28T07:08:23.065Z"
    }
}
]
